entrega1/logic_unit/data/logic_unit_tb.vcd
$date
	Wed Oct 16 19:59:22 2024
$end
$version
	Icarus Verilog
$end
$timescale
	10ps
$end
$scope module logic_unit_tb $end
$var wire 4 ! test_Out [3:0] $end
$var reg 4 " test_A [3:0] $end
$var reg 4 # test_B [3:0] $end
$var reg 2 $ test_S [1:0] $end
$scope module ul4_1 $end
$var wire 4 % A [3:0] $end
$var wire 4 & B [3:0] $end
$var wire 2 ' S [1:0] $end
$var wire 4 ( Out [3:0] $end
$scope module log_cell1 $end
$var wire 2 ) S [1:0] $end
$var wire 1 * a $end
$var wire 1 + b $end
$var wire 1 , result1 $end
$var wire 1 - result2 $end
$var wire 1 . result3 $end
$var wire 1 / result4 $end
$var wire 1 0 out $end
$scope module mux4_11 $end
$var wire 2 1 S [1:0] $end
$var wire 1 , a $end
$var wire 1 - b $end
$var wire 1 . c $end
$var wire 1 / d $end
$var reg 1 0 out $end
$upscope $end
$upscope $end
$scope module log_cell2 $end
$var wire 2 2 S [1:0] $end
$var wire 1 3 a $end
$var wire 1 4 b $end
$var wire 1 5 result1 $end
$var wire 1 6 result2 $end
$var wire 1 7 result3 $end
$var wire 1 8 result4 $end
$var wire 1 9 out $end
$scope module mux4_11 $end
$var wire 2 : S [1:0] $end
$var wire 1 5 a $end
$var wire 1 6 b $end
$var wire 1 7 c $end
$var wire 1 8 d $end
$var reg 1 9 out $end
$upscope $end
$upscope $end
$scope module log_cell3 $end
$var wire 2 ; S [1:0] $end
$var wire 1 < a $end
$var wire 1 = b $end
$var wire 1 > result1 $end
$var wire 1 ? result2 $end
$var wire 1 @ result3 $end
$var wire 1 A result4 $end
$var wire 1 B out $end
$scope module mux4_11 $end
$var wire 2 C S [1:0] $end
$var wire 1 > a $end
$var wire 1 ? b $end
$var wire 1 @ c $end
$var wire 1 A d $end
$var reg 1 B out $end
$upscope $end
$upscope $end
$scope module log_cell4 $end
$var wire 2 D S [1:0] $end
$var wire 1 E a $end
$var wire 1 F b $end
$var wire 1 G result1 $end
$var wire 1 H result2 $end
$var wire 1 I result3 $end
$var wire 1 J result4 $end
$var wire 1 K out $end
$scope module mux4_11 $end
$var wire 2 L S [1:0] $end
$var wire 1 G a $end
$var wire 1 H b $end
$var wire 1 I c $end
$var wire 1 J d $end
$var reg 1 K out $end
$upscope $end
$upscope $end
$upscope $end
$upscope $end
$enddefinitions $end
$comment Show the parameter values. $end
$dumpall
$end
#0
$dumpvars
b0 L
0K
1J
0I
0H
0G
0F
0E
b0 D
b0 C
0B
1A
0@
0?
0>
0=
0<
b0 ;
b0 :
09
18
07
06
05
04
03
b0 2
b0 1
00
1/
0.
0-
0,
0+
0*
b0 )
b0 (
b0 '
b0 &
b0 %
b0 $
b0 #
b0 "
b0 !
$end
#2000
b1 $
b1 '
b1 )
b1 1
b1 2
b1 :
b1 ;
b1 C
b1 D
b1 L
#4000
1-
1.
1+
b1 #
b1 &
b0 $
b0 '
b0 )
b0 1
b0 2
b0 :
b0 ;
b0 C
b0 D
b0 L
#6000
b1 !
b1 (
10
b1 $
b1 '
b1 )
b1 1
b1 2
b1 :
b1 ;
b1 C
b1 D
b1 L
#8000
0-
0.
16
17
0+
14
b0 !
b0 (
00
b10 #
b10 &
b0 $
b0 '
b0 )
b0 1
b0 2
b0 :
b0 ;
b0 C
b0 D
b0 L
#10000
b10 !
b10 (
19
b1 $
b1 '
b1 )
b1 1
b1 2
b1 :
b1 ;
b1 C
b1 D
b1 L
#12000
1-
1.
1+
b0 !
b0 (
09
b11 #
b11 &
b0 $
b0 '
b0 )
b0 1
b0 2
b0 :
b0 ;
b0 C
b0 D
b0 L
#14000
10
b11 !
b11 (
19
b1 $
b1 '
b1 )
b1 1
b1 2
b1 :
b1 ;
b1 C
b1 D
b1 L
#16000
0-
0.
06
07
1?
1@
0+
04
1=
00
b0 !
b0 (
09
b100 #
b100 &
b0 $
b0 '
b0 )
b0 1
b0 2
b0 :
b0 ;
b0 C
b0 D
b0 L
#18000
b100 !
b100 (
1B
b1 $
b1 '
b1 )
b1 1
b1 2
b1 :
b1 ;
b1 C
b1 D
b1 L
#20000
1-
1.
1+
b0 !
b0 (
0B
b101 #
b101 &
b0 $
b0 '
b0 )
b0 1
b0 2
b0 :
b0 ;
b0 C
b0 D
b0 L
#22000
10
b101 !
b101 (
1B
b1 $
b1 '
b1 )
b1 1
b1 2
b1 :
b1 ;
b1 C
b1 D
b1 L
#24000
0-
0.
16
17
0+
14
00
b0 !
b0 (
0B
b110 #
b110 &
b0 $
b0 '
b0 )
b0 1
b0 2
b0 :
b0 ;
b0 C
b0 D
b0 L
#26000
19
b110 !
b110 (
1B
b1 $
b1 '
b1 )
b1 1
b1 2
b1 :
b1 ;
b1 C
b1 D
b1 L
#28000
1-
1.
1+
09
b0 !
b0 (
0B
b111 #
b111 &
b0 $
b0 '
b0 )
b0 1
b0 2
b0 :
b0 ;
b0 C
b0 D
b0 L
#30000
10
19
b111 !
b111 (
1B
b1 $
b1 '
b1 )
b1 1
b1 2
b1 :
b1 ;
b1 C
b1 D
b1 L
#32000
0-
0.
06
07
0?
0@
1H
1I
0+
04
0=
1F
00
09
b0 !
b0 (
0B
b1000 #
b1000 &
b0 $
b0 '
b0 )
b0 1
b0 2
b0 :
b0 ;
b0 C
b0 D
b0 L
#34000
b1000 !
b1000 (
1K
b1 $
b1 '
b1 )
b1 1
b1 2
b1 :
b1 ;
b1 C
b1 D
b1 L
#36000
1-
1.
1+
b0 !
b0 (
0K
b1001 #
b1001 &
b0 $
b0 '
b0 )
b0 1
b0 2
b0 :
b0 ;
b0 C
b0 D
b0 L
#38000
10
b1001 !
b1001 (
1K
b1 $
b1 '
b1 )
b1 1
b1 2
b1 :
b1 ;
b1 C
b1 D
b1 L
#40000
0-
0.
16
17
0+
14
00
b0 !
b0 (
0K
b1010 #
b1010 &
b0 $
b0 '
b0 )
b0 1
b0 2
b0 :
b0 ;
b0 C
b0 D
b0 L
#42000
19
b1010 !
b1010 (
1K
b1 $
b1 '
b1 )
b1 1
b1 2
b1 :
b1 ;
b1 C
b1 D
b1 L
#44000
1-
1.
1+
09
b0 !
b0 (
0K
b1011 #
b1011 &
b0 $
b0 '
b0 )
b0 1
b0 2
b0 :
b0 ;
b0 C
b0 D
b0 L
#46000
10
19
b1011 !
b1011 (
1K
b1 $
b1 '
b1 )
b1 1
b1 2
b1 :
b1 ;
b1 C
b1 D
b1 L
#48000
0-
0.
06
07
1?
1@
0+
04
1=
00
09
b0 !
b0 (
0K
b1100 #
b1100 &
b0 $
b0 '
b0 )
b0 1
b0 2
b0 :
b0 ;
b0 C
b0 D
b0 L
#50000
1B
b1100 !
b1100 (
1K
b1 $
b1 '
b1 )
b1 1
b1 2
b1 :
b1 ;
b1 C
b1 D
b1 L
#52000
1-
1.
1+
0B
b0 !
b0 (
0K
b1101 #
b1101 &
b0 $
b0 '
b0 )
b0 1
b0 2
b0 :
b0 ;
b0 C
b0 D
b0 L
#54000
10
1B
b1101 !
b1101 (
1K
b1 $
b1 '
b1 )
b1 1
b1 2
b1 :
b1 ;
b1 C
b1 D
b1 L
#56000
0-
0.
16
17
0+
14
00
0B
b0 !
b0 (
0K
b1110 #
b1110 &
b0 $
b0 '
b0 )
b0 1
b0 2
b0 :
b0 ;
b0 C
b0 D
b0 L
#58000
19
1B
b1110 !
b1110 (
1K
b1 $
b1 '
b1 )
b1 1
b1 2
b1 :
b1 ;
b1 C
b1 D
b1 L
#60000
1-
1.
1+
09
0B
b0 !
b0 (
0K
b1111 #
b1111 &
b0 $
b0 '
b0 )
b0 1
b0 2
b0 :
b0 ;
b0 C
b0 D
b0 L
#62000
10
19
1B
b1111 !
b1111 (
1K
b1 $
b1 '
b1 )
b1 1
b1 2
b1 :
b1 ;
b1 C
b1 D
b1 L
#64000
0-
0.
06
07
0?
0@
0H
0I
0+
04
0=
0F
00
09
0B
b0 !
b0 (
0K
b0 #
b0 &
b0 $
b0 '
b0 )
b0 1
b0 2
b0 :
b0 ;
b0 C
b0 D
b0 L
#66000
b1 $
b1 '
b1 )
b1 1
b1 2
b1 :
b1 ;
b1 C
b1 D
b1 L
#68000
1-
1.
1+
b1 #
b1 &
b0 $
b0 '
b0 )
b0 1
b0 2
b0 :
b0 ;
b0 C
b0 D
b0 L
#70000
b1 !
b1 (
10
b1 $
b1 '
b1 )
b1 1
b1 2
b1 :
b1 ;
b1 C
b1 D
b1 L
#72000
0-
0.
16
17
0+
14
b0 !
b0 (
00
b10 #
b10 &
b0 $
b0 '
b0 )
b0 1
b0 2
b0 :
b0 ;
b0 C
b0 D
b0 L
#74000
b10 !
b10 (
19
b1 $
b1 '
b1 )
b1 1
b1 2
b1 :
b1 ;
b1 C
b1 D
b1 L
#76000
1-
1.
1+
b0 !
b0 (
09
b11 #
b11 &
b0 $
b0 '
b0 )
b0 1
b0 2
b0 :
b0 ;
b0 C
b0 D
b0 L
#78000
10
b11 !
b11 (
19
b1 $
b1 '
b1 )
b1 1
b1 2
b1 :
b1 ;
b1 C
b1 D
b1 L
#80000
0-
0.
06
07
1?
1@
0+
04
1=
00
b0 !
b0 (
09
b100 #
b100 &
b0 $
b0 '
b0 )
b0 1
b0 2
b0 :
b0 ;
b0 C
b0 D
b0 L
#82000
b100 !
b100 (
1B
b1 $
b1 '
b1 )
b1 1
b1 2
b1 :
b1 ;
b1 C
b1 D
b1 L
#84000
1-
1.
1+
b0 !
b0 (
0B
b101 #
b101 &
b0 $
b0 '
b0 )
b0 1
b0 2
b0 :
b0 ;
b0 C
b0 D
b0 L
#86000
10
b101 !
b101 (
1B
b1 $
b1 '
b1 )
b1 1
b1 2
b1 :
b1 ;
b1 C
b1 D
b1 L
#88000
0-
0.
16
17
0+
14
00
b0 !
b0 (
0B
b110 #
b110 &
b0 $
b0 '
b0 )
b0 1
b0 2
b0 :
b0 ;
b0 C
b0 D
b0 L
#90000
19
b110 !
b110 (
1B
b1 $
b1 '
b1 )
b1 1
b1 2
b1 :
b1 ;
b1 C
b1 D
b1 L
#92000
1-
1.
1+
09
b0 !
b0 (
0B
b111 #
b111 &
b0 $
b0 '
b0 )
b0 1
b0 2
b0 :
b0 ;
b0 C
b0 D
b0 L
#94000
10
19
b111 !
b111 (
1B
b1 $
b1 '
b1 )
b1 1
b1 2
b1 :
b1 ;
b1 C
b1 D
b1 L
#96000
0-
0.
06
07
0?
0@
1H
1I
0+
04
0=
1F
00
09
b0 !
b0 (
0B
b1000 #
b1000 &
b0 $
b0 '
b0 )
b0 1
b0 2
b0 :
b0 ;
b0 C
b0 D
b0 L
#98000
b1000 !
b1000 (
1K
b1 $
b1 '
b1 )
b1 1
b1 2
b1 :
b1 ;
b1 C
b1 D
b1 L
#100000
1-
1.
1+
b0 !
b0 (
0K
b1001 #
b1001 &
b0 $
b0 '
b0 )
b0 1
b0 2
b0 :
b0 ;
b0 C
b0 D
b0 L
#102000
10
b1001 !
b1001 (
1K
b1 $
b1 '
b1 )
b1 1
b1 2
b1 :
b1 ;
b1 C
b1 D
b1 L
#104000
0-
0.
16
17
0+
14
00
b0 !
b0 (
0K
b1010 #
b1010 &
b0 $
b0 '
b0 )
b0 1
b0 2
b0 :
b0 ;
b0 C
b0 D
b0 L
#106000
19
b1010 !
b1010 (
1K
b1 $
b1 '
b1 )
b1 1
b1 2
b1 :
b1 ;
b1 C
b1 D
b1 L
#108000
1-
1.
1+
09
b0 !
b0 (
0K
b1011 #
b1011 &
b0 $
b0 '
b0 )
b0 1
b0 2
b0 :
b0 ;
b0 C
b0 D
b0 L
#110000
10
19
b1011 !
b1011 (
1K
b1 $
b1 '
b1 )
b1 1
b1 2
b1 :
b1 ;
b1 C
b1 D
b1 L
#112000
0-
0.
06
07
1?
1@
0+
04
1=
00
09
b0 !
b0 (
0K
b1100 #
b1100 &
b0 $
b0 '
b0 )
b0 1
b0 2
b0 :
b0 ;
b0 C
b0 D
b0 L
#114000
1B
b1100 !
b1100 (
1K
b1 $
b1 '
b1 )
b1 1
b1 2
b1 :
b1 ;
b1 C
b1 D
b1 L
#116000
1-
1.
1+
0B
b0 !
b0 (
0K
b1101 #
b1101 &
b0 $
b0 '
b0 )
b0 1
b0 2
b0 :
b0 ;
b0 C
b0 D
b0 L
#118000
10
1B
b1101 !
b1101 (
1K
b1 $
b1 '
b1 )
b1 1
b1 2
b1 :
b1 ;
b1 C
b1 D
b1 L
#120000
0-
0.
16
17
0+
14
00
0B
b0 !
b0 (
0K
b1110 #
b1110 &
b0 $
b0 '
b0 )
b0 1
b0 2
b0 :
b0 ;
b0 C
b0 D
b0 L
#122000
19
1B
b1110 !
b1110 (
1K
b1 $
b1 '
b1 )
b1 1
b1 2
b1 :
b1 ;
b1 C
b1 D
b1 L
#124000
1-
1.
1+
09
0B
b0 !
b0 (
0K
b1111 #
b1111 &
b0 $
b0 '
b0 )
b0 1
b0 2
b0 :
b0 ;
b0 C
b0 D
b0 L
#126000
10
19
1B
b1111 !
b1111 (
1K
b1 $
b1 '
b1 )
b1 1
b1 2
b1 :
b1 ;
b1 C
b1 D
b1 L
#128000
0-
0.
06
07
0?
0@
0H
0I
0+
04
0=
0F
00
09
0B
b0 !
b0 (
0K
b0 #
b0 &
b0 $
b0 '
b0 )
b0 1
b0 2
b0 :
b0 ;
b0 C
b0 D
b0 L
#130000
b1 $
b1 '
b1 )
b1 1
b1 2
b1 :
b1 ;
b1 C
b1 D
b1 L
#132000
1-
1.
1+
b1 #
b1 &
b0 $
b0 '
b0 )
b0 1
b0 2
b0 :
b0 ;
b0 C
b0 D
b0 L
#134000
b1 !
b1 (
10
b1 $
b1 '
b1 )
b1 1
b1 2
b1 :
b1 ;
b1 C
b1 D
b1 L
#136000
0-
0.
16
17
0+
14
b0 !
b0 (
00
b10 #
b10 &
b0 $
b0 '
b0 )
b0 1
b0 2
b0 :
b0 ;
b0 C
b0 D
b0 L
#138000
b10 !
b10 (
19
b1 $
b1 '
b1 )
b1 1
b1 2
b1 :
b1 ;
b1 C
b1 D
b1 L
#140000
1-
1.
1+
b0 !
b0 (
09
b11 #
b11 &
b0 $
b0 '
b0 )
b0 1
b0 2
b0 :
b0 ;
b0 C
b0 D
b0 L
#142000
10
b11 !
b11 (
19
b1 $
b1 '
b1 )
b1 1
b1 2
b1 :
b1 ;
b1 C
b1 D
b1 L
#144000
0-
0.
06
07
1?
1@
0+
04
1=
00
b0 !
b0 (
09
b100 #
b100 &
b0 $
b0 '
b0 )
b0 1
b0 2
b0 :
b0 ;
b0 C
b0 D
b0 L
#146000
b100 !
b100 (
1B
b1 $
b1 '
b1 )
b1 1
b1 2
b1 :
b1 ;
b1 C
b1 D
b1 L
#148000
1-
1.
1+
b0 !
b0 (
0B
b101 #
b101 &
b0 $
b0 '
b0 )
b0 1
b0 2
b0 :
b0 ;
b0 C
b0 D
b0 L
#150000
10
b101 !
b101 (
1B
b1 $
b1 '
b1 )
b1 1
b1 2
b1 :
b1 ;
b1 C
b1 D
b1 L
#152000
0-
0.
16
17
0+
14
00
b0 !
b0 (
0B
b110 #
b110 &
b0 $
b0 '
b0 )
b0 1
b0 2
b0 :
b0 ;
b0 C
b0 D
b0 L
#154000
19
b110 !
b110 (
1B
b1 $
b1 '
b1 )
b1 1
b1 2
b1 :
b1 ;
b1 C
b1 D
b1 L
#156000
1-
1.
1+
09
b0 !
b0 (
0B
b111 #
b111 &
b0 $
b0 '
b0 )
b0 1
b0 2
b0 :
b0 ;
b0 C
b0 D
b0 L
#158000
10
19
b111 !
b111 (
1B
b1 $
b1 '
b1 )
b1 1
b1 2
b1 :
b1 ;
b1 C
b1 D
b1 L
#160000
0-
0.
06
07
0?
0@
1H
1I
0+
04
0=
1F
00
09
b0 !
b0 (
0B
b1000 #
b1000 &
b0 $
b0 '
b0 )
b0 1
b0 2
b0 :
b0 ;
b0 C
b0 D
b0 L
#162000
b1000 !
b1000 (
1K
b1 $
b1 '
b1 )
b1 1
b1 2
b1 :
b1 ;
b1 C
b1 D
b1 L
#164000
1-
1.
1+
b0 !
b0 (
0K
b1001 #
b1001 &
b0 $
b0 '
b0 )
b0 1
b0 2
b0 :
b0 ;
b0 C
b0 D
b0 L
#166000
10
b1001 !
b1001 (
1K
b1 $
b1 '
b1 )
b1 1
b1 2
b1 :
b1 ;
b1 C
b1 D
b1 L
#168000
0-
0.
16
17
0+
14
00
b0 !
b0 (
0K
b1010 #
b1010 &
b0 $
b0 '
b0 )
b0 1
b0 2
b0 :
b0 ;
b0 C
b0 D
b0 L
#170000
19
b1010 !
b1010 (
1K
b1 $
b1 '
b1 )
b1 1
b1 2
b1 :
b1 ;
b1 C
b1 D
b1 L
#172000
1-
1.
1+
09
b0 !
b0 (
0K
b1011 #
b1011 &
b0 $
b0 '
b0 )
b0 1
b0 2
b0 :
b0 ;
b0 C
b0 D
b0 L
#174000
10
19
b1011 !
b1011 (
1K
b1 $
b1 '
b1 )
b1 1
b1 2
b1 :
b1 ;
b1 C
b1 D
b1 L
#176000
0-
0.
06
07
1?
1@
0+
04
1=
00
09
b0 !
b0 (
0K
b1100 #
b1100 &
b0 $
b0 '
b0 )
b0 1
b0 2
b0 :
b0 ;
b0 C
b0 D
b0 L
#178000
1B
b1100 !
b1100 (
1K
b1 $
b1 '
b1 )
b1 1
b1 2
b1 :
b1 ;
b1 C
b1 D
b1 L
#180000
1-
1.
1+
0B
b0 !
b0 (
0K
b1101 #
b1101 &
b0 $
b0 '
b0 )
b0 1
b0 2
b0 :
b0 ;
b0 C
b0 D
b0 L
#182000
10
1B
b1101 !
b1101 (
1K
b1 $
b1 '
b1 )
b1 1
b1 2
b1 :
b1 ;
b1 C
b1 D
b1 L
#184000
0-
0.
16
17
0+
14
00
0B
b0 !
b0 (
0K
b1110 #
b1110 &
b0 $
b0 '
b0 )
b0 1
b0 2
b0 :
b0 ;
b0 C
b0 D
b0 L
#186000
19
1B
b1110 !
b1110 (
1K
b1 $
b1 '
b1 )
b1 1
b1 2
b1 :
b1 ;
b1 C
b1 D
b1 L
#188000
1-
1.
1+
09
0B
b0 !
b0 (
0K
b1111 #
b1111 &
b0 $
b0 '
b0 )
b0 1
b0 2
b0 :
b0 ;
b0 C
b0 D
b0 L
#190000
10
19
1B
b1111 !
b1111 (
1K
b1 $
b1 '
b1 )
b1 1
b1 2
b1 :
b1 ;
b1 C
b1 D
b1 L
#192000
0-
0.
06
07
0?
0@
0H
0I
0+
04
0=
0F
00
09
0B
b0 !
b0 (
0K
b0 #
b0 &
b0 $
b0 '
b0 )
b0 1
b0 2
b0 :
b0 ;
b0 C
b0 D
b0 L
#194000
b1 $
b1 '
b1 )
b1 1
b1 2
b1 :
b1 ;
b1 C
b1 D
b1 L
#196000
1-
1.
1+
b1 #
b1 &
b0 $
b0 '
b0 )
b0 1
b0 2
b0 :
b0 ;
b0 C
b0 D
b0 L
#198000
b1 !
b1 (
10
b1 $
b1 '
b1 )
b1 1
b1 2
b1 :
b1 ;
b1 C
b1 D
b1 L
#200000
0-
0.
16
17
0+
14
b0 !
b0 (
00
b10 #
b10 &
b0 $
b0 '
b0 )
b0 1
b0 2
b0 :
b0 ;
b0 C
b0 D
b0 L
#202000
b10 !
b10 (
19
b1 $
b1 '
b1 )
b1 1
b1 2
b1 :
b1 ;
b1 C
b1 D
b1 L
#204000
1-
1.
1+
b0 !
b0 (
09
b11 #
b11 &
b0 $
b0 '
b0 )
b0 1
b0 2
b0 :
b0 ;
b0 C
b0 D
b0 L
#206000
10
b11 !
b11 (
19
b1 $
b1 '
b1 )
b1 1
b1 2
b1 :
b1 ;
b1 C
b1 D
b1 L
#208000
0-
0.
06
07
1?
1@
0+
04
1=
00
b0 !
b0 (
09
b100 #
b100 &
b0 $
b0 '
b0 )
b0 1
b0 2
b0 :
b0 ;
b0 C
b0 D
b0 L
#210000
b100 !
b100 (
1B
b1 $
b1 '
b1 )
b1 1
b1 2
b1 :
b1 ;
b1 C
b1 D
b1 L
#212000
1-
1.
1+
b0 !
b0 (
0B
b101 #
b101 &
b0 $
b0 '
b0 )
b0 1
b0 2
b0 :
b0 ;
b0 C
b0 D
b0 L
#214000
10
b101 !
b101 (
1B
b1 $
b1 '
b1 )
b1 1
b1 2
b1 :
b1 ;
b1 C
b1 D
b1 L
#216000
0-
0.
16
17
0+
14
00
b0 !
b0 (
0B
b110 #
b110 &
b0 $
b0 '
b0 )
b0 1
b0 2
b0 :
b0 ;
b0 C
b0 D
b0 L
#218000
19
b110 !
b110 (
1B
b1 $
b1 '
b1 )
b1 1
b1 2
b1 :
b1 ;
b1 C
b1 D
b1 L
#220000
1-
1.
1+
09
b0 !
b0 (
0B
b111 #
b111 &
b0 $
b0 '
b0 )
b0 1
b0 2
b0 :
b0 ;
b0 C
b0 D
b0 L
#222000
10
19
b111 !
b111 (
1B
b1 $
b1 '
b1 )
b1 1
b1 2
b1 :
b1 ;
b1 C
b1 D
b1 L
#224000
0-
0.
06
07
0?
0@
1H
1I
0+
04
0=
1F
00
09
b0 !
b0 (
0B
b1000 #
b1000 &
b0 $
b0 '
b0 )
b0 1
b0 2
b0 :
b0 ;
b0 C
b0 D
b0 L
#226000
b1000 !
b1000 (
1K
b1 $
b1 '
b1 )
b1 1
b1 2
b1 :
b1 ;
b1 C
b1 D
b1 L
#228000
1-
1.
1+
b0 !
b0 (
0K
b1001 #
b1001 &
b0 $
b0 '
b0 )
b0 1
b0 2
b0 :
b0 ;
b0 C
b0 D
b0 L
#230000
10
b1001 !
b1001 (
1K
b1 $
b1 '
b1 )
b1 1
b1 2
b1 :
b1 ;
b1 C
b1 D
b1 L
#232000
0-
0.
16
17
0+
14
00
b0 !
b0 (
0K
b1010 #
b1010 &
b0 $
b0 '
b0 )
b0 1
b0 2
b0 :
b0 ;
b0 C
b0 D
b0 L
#234000
19
b1010 !
b1010 (
1K
b1 $
b1 '
b1 )
b1 1
b1 2
b1 :
b1 ;
b1 C
b1 D
b1 L
#236000
1-
1.
1+
09
b0 !
b0 (
0K
b1011 #
b1011 &
b0 $
b0 '
b0 )
b0 1
b0 2
b0 :
b0 ;
b0 C
b0 D
b0 L
#238000
10
19
b1011 !
b1011 (
1K
b1 $
b1 '
b1 )
b1 1
b1 2
b1 :
b1 ;
b1 C
b1 D
b1 L
#240000
0-
0.
06
07
1?
1@
0+
04
1=
00
09
b0 !
b0 (
0K
b1100 #
b1100 &
b0 $
b0 '
b0 )
b0 1
b0 2
b0 :
b0 ;
b0 C
b0 D
b0 L
#242000
1B
b1100 !
b1100 (
1K
b1 $
b1 '
b1 )
b1 1
b1 2
b1 :
b1 ;
b1 C
b1 D
b1 L
#244000
1-
1.
1+
0B
b0 !
b0 (
0K
b1101 #
b1101 &
b0 $
b0 '
b0 )
b0 1
b0 2
b0 :
b0 ;
b0 C
b0 D
b0 L
#246000
10
1B
b1101 !
b1101 (
1K
b1 $
b1 '
b1 )
b1 1
b1 2
b1 :
b1 ;
b1 C
b1 D
b1 L
#248000
0-
0.
16
17
0+
14
00
0B
b0 !
b0 (
0K
b1110 #
b1110 &
b0 $
b0 '
b0 )
b0 1
b0 2
b0 :
b0 ;
b0 C
b0 D
b0 L
#250000
19
1B
b1110 !
b1110 (
1K
b1 $
b1 '
b1 )
b1 1
b1 2
b1 :
b1 ;
b1 C
b1 D
b1 L
#252000
1-
1.
1+
09
0B
b0 !
b0 (
0K
b1111 #
b1111 &
b0 $
b0 '
b0 )
b0 1
b0 2
b0 :
b0 ;
b0 C
b0 D
b0 L
#254000
10
19
1B
b1111 !
b1111 (
1K
b1 $
b1 '
b1 )
b1 1
b1 2
b1 :
b1 ;
b1 C
b1 D
b1 L
#256000
0-
0.
06
07
0?
0@
0H
0I
0+
04
0=
0F
00
09
0B
b0 !
b0 (
0K
b0 #
b0 &
b0 $
b0 '
b0 )
b0 1
b0 2
b0 :
b0 ;
b0 C
b0 D
b0 L
#258000
b1 $
b1 '
b1 )
b1 1
b1 2
b1 :
b1 ;
b1 C
b1 D
b1 L
#260000
1-
1.
1+
b1 #
b1 &
b0 $
b0 '
b0 )
b0 1
b0 2
b0 :
b0 ;
b0 C
b0 D
b0 L
#262000
b1 !
b1 (
10
b1 $
b1 '
b1 )
b1 1
b1 2
b1 :
b1 ;
b1 C
b1 D
b1 L
#264000
0-
0.
16
17
0+
14
b0 !
b0 (
00
b10 #
b10 &
b0 $
b0 '
b0 )
b0 1
b0 2
b0 :
b0 ;
b0 C
b0 D
b0 L
#266000
b10 !
b10 (
19
b1 $
b1 '
b1 )
b1 1
b1 2
b1 :
b1 ;
b1 C
b1 D
b1 L
#268000
1-
1.
1+
b0 !
b0 (
09
b11 #
b11 &
b0 $
b0 '
b0 )
b0 1
b0 2
b0 :
b0 ;
b0 C
b0 D
b0 L
#270000
10
b11 !
b11 (
19
b1 $
b1 '
b1 )
b1 1
b1 2
b1 :
b1 ;
b1 C
b1 D
b1 L
#272000
0-
0.
06
07
1?
1@
0+
04
1=
00
b0 !
b0 (
09
b100 #
b100 &
b0 $
b0 '
b0 )
b0 1
b0 2
b0 :
b0 ;
b0 C
b0 D
b0 L
#274000
b100 !
b100 (
1B
b1 $
b1 '
b1 )
b1 1
b1 2
b1 :
b1 ;
b1 C
b1 D
b1 L
#276000
1-
1.
1+
b0 !
b0 (
0B
b101 #
b101 &
b0 $
b0 '
b0 )
b0 1
b0 2
b0 :
b0 ;
b0 C
b0 D
b0 L
#278000
10
b101 !
b101 (
1B
b1 $
b1 '
b1 )
b1 1
b1 2
b1 :
b1 ;
b1 C
b1 D
b1 L
#280000
0-
0.
16
17
0+
14
00
b0 !
b0 (
0B
b110 #
b110 &
b0 $
b0 '
b0 )
b0 1
b0 2
b0 :
b0 ;
b0 C
b0 D
b0 L
#282000
19
b110 !
b110 (
1B
b1 $
b1 '
b1 )
b1 1
b1 2
b1 :
b1 ;
b1 C
b1 D
b1 L
#284000
1-
1.
1+
09
b0 !
b0 (
0B
b111 #
b111 &
b0 $
b0 '
b0 )
b0 1
b0 2
b0 :
b0 ;
b0 C
b0 D
b0 L
#286000
10
19
b111 !
b111 (
1B
b1 $
b1 '
b1 )
b1 1
b1 2
b1 :
b1 ;
b1 C
b1 D
b1 L
#288000
0-
0.
06
07
0?
0@
1H
1I
0+
04
0=
1F
00
09
b0 !
b0 (
0B
b1000 #
b1000 &
b0 $
b0 '
b0 )
b0 1
b0 2
b0 :
b0 ;
b0 C
b0 D
b0 L
#290000
b1000 !
b1000 (
1K
b1 $
b1 '
b1 )
b1 1
b1 2
b1 :
b1 ;
b1 C
b1 D
b1 L
#292000
1-
1.
1+
b0 !
b0 (
0K
b1001 #
b1001 &
b0 $
b0 '
b0 )
b0 1
b0 2
b0 :
b0 ;
b0 C
b0 D
b0 L
#294000
10
b1001 !
b1001 (
1K
b1 $
b1 '
b1 )
b1 1
b1 2
b1 :
b1 ;
b1 C
b1 D
b1 L
#296000
0-
0.
16
17
0+
14
00
b0 !
b0 (
0K
b1010 #
b1010 &
b0 $
b0 '
b0 )
b0 1
b0 2
b0 :
b0 ;
b0 C
b0 D
b0 L
#298000
19
b1010 !
b1010 (
1K
b1 $
b1 '
b1 )
b1 1
b1 2
b1 :
b1 ;
b1 C
b1 D
b1 L
#300000
1-
1.
1+
09
b0 !
b0 (
0K
b1011 #
b1011 &
b0 $
b0 '
b0 )
b0 1
b0 2
b0 :
b0 ;
b0 C
b0 D
b0 L
#302000
10
19
b1011 !
b1011 (
1K
b1 $
b1 '
b1 )
b1 1
b1 2
b1 :
b1 ;
b1 C
b1 D
b1 L
#304000
0-
0.
06
07
1?
1@
0+
04
1=
00
09
b0 !
b0 (
0K
b1100 #
b1100 &
b0 $
b0 '
b0 )
b0 1
b0 2
b0 :
b0 ;
b0 C
b0 D
b0 L
#306000
1B
b1100 !
b1100 (
1K
b1 $
b1 '
b1 )
b1 1
b1 2
b1 :
b1 ;
b1 C
b1 D
b1 L
#308000
1-
1.
1+
0B
b0 !
b0 (
0K
b1101 #
b1101 &
b0 $
b0 '
b0 )
b0 1
b0 2
b0 :
b0 ;
b0 C
b0 D
b0 L
#310000
10
1B
b1101 !
b1101 (
1K
b1 $
b1 '
b1 )
b1 1
b1 2
b1 :
b1 ;
b1 C
b1 D
b1 L
#312000
0-
0.
16
17
0+
14
00
0B
b0 !
b0 (
0K
b1110 #
b1110 &
b0 $
b0 '
b0 )
b0 1
b0 2
b0 :
b0 ;
b0 C
b0 D
b0 L
#314000
19
1B
b1110 !
b1110 (
1K
b1 $
b1 '
b1 )
b1 1
b1 2
b1 :
b1 ;
b1 C
b1 D
b1 L
#316000
1-
1.
1+
09
0B
b0 !
b0 (
0K
b1111 #
b1111 &
b0 $
b0 '
b0 )
b0 1
b0 2
b0 :
b0 ;
b0 C
b0 D
b0 L
#318000
10
19
1B
b1111 !
b1111 (
1K
b1 $
b1 '
b1 )
b1 1
b1 2
b1 :
b1 ;
b1 C
b1 D
b1 L
#320000
0-
0.
06
07
0?
0@
0H
0I
0+
04
0=
0F
00
09
0B
b0 !
b0 (
0K
b0 #
b0 &
b0 $
b0 '
b0 )
b0 1
b0 2
b0 :
b0 ;
b0 C
b0 D
b0 L
#322000
b1 $
b1 '
b1 )
b1 1
b1 2
b1 :
b1 ;
b1 C
b1 D
b1 L
#324000
1-
1.
1+
b1 #
b1 &
b0 $
b0 '
b0 )
b0 1
b0 2
b0 :
b0 ;
b0 C
b0 D
b0 L
#326000
b1 !
b1 (
10
b1 $
b1 '
b1 )
b1 1
b1 2
b1 :
b1 ;
b1 C
b1 D
b1 L
#328000
0-
0.
16
17
0+
14
b0 !
b0 (
00
b10 #
b10 &
b0 $
b0 '
b0 )
b0 1
b0 2
b0 :
b0 ;
b0 C
b0 D
b0 L
