entrega1/sum4/sumador_v2/data/sumador4_tb.vcd
$date
	Wed Oct 16 20:13:27 2024
$end
$version
	Icarus Verilog
$end
$timescale
	10ps
$end
$scope module sumador4_tb $end
$var wire 1 ! test_carry_out $end
$var wire 4 " test_S [3:0] $end
$var reg 4 # test_A [3:0] $end
$var reg 4 $ test_B [3:0] $end
$var reg 1 % test_carry_in $end
$scope module sum4_1 $end
$var wire 4 & A [3:0] $end
$var wire 4 ' B [3:0] $end
$var wire 1 % c_in $end
$var wire 1 ! c_out $end
$var wire 4 ( S [3:0] $end
$upscope $end
$upscope $end
$enddefinitions $end
$comment Show the parameter values. $end
$dumpall
$end
#0
$dumpvars
b0 (
b0 '
b0 &
0%
b0 $
b0 #
b0 "
0!
$end
#2000
b1 "
b1 (
1%
#4000
b0 "
b0 (
0%
#6000
b1 "
b1 (
1%
#8000
b0 "
b0 (
0%
#10000
b1 "
b1 (
1%
#12000
b0 "
b0 (
0%
#14000
b1 "
b1 (
1%
#16000
b0 "
b0 (
0%
#18000
b1 "
b1 (
1%
#20000
b0 "
b0 (
0%
#22000
b1 "
b1 (
1%
#24000
b0 "
b0 (
0%
#26000
b1 "
b1 (
1%
#28000
b0 "
b0 (
0%
#30000
b1 "
b1 (
1%
#32000
b0 "
b0 (
0%
#34000
b1 "
b1 (
1%
#36000
b0 "
b0 (
0%
#38000
b1 "
b1 (
1%
#40000
b0 "
b0 (
0%
#42000
b1 "
b1 (
1%
#44000
b0 "
b0 (
0%
#46000
b1 "
b1 (
1%
#48000
b0 "
b0 (
0%
#50000
b1 "
b1 (
1%
#52000
b0 "
b0 (
0%
#54000
b1 "
b1 (
1%
#56000
b0 "
b0 (
0%
#58000
b1 "
b1 (
1%
#60000
b0 "
b0 (
0%
#62000
b1 "
b1 (
1%
#64000
b0 "
b0 (
0%
#66000
b1 "
b1 (
1%
#68000
b0 "
b0 (
0%
#70000
b1 "
b1 (
1%
#72000
b0 "
b0 (
0%
#74000
b1 "
b1 (
1%
#76000
b0 "
b0 (
0%
#78000
b1 "
b1 (
1%
#80000
b0 "
b0 (
0%
#82000
b1 "
b1 (
1%
#84000
b0 "
b0 (
0%
#86000
b1 "
b1 (
1%
#88000
b0 "
b0 (
0%
#90000
b1 "
b1 (
1%
#92000
b0 "
b0 (
0%
#94000
b1 "
b1 (
1%
#96000
b0 "
b0 (
0%
#98000
b1 "
b1 (
1%
#100000
b0 "
b0 (
0%
#102000
b1 "
b1 (
1%
#104000
b0 "
b0 (
0%
#106000
b1 "
b1 (
1%
#108000
b0 "
b0 (
0%
#110000
b1 "
b1 (
1%
#112000
b0 "
b0 (
0%
#114000
b1 "
b1 (
1%
#116000
b0 "
b0 (
0%
#118000
b1 "
b1 (
1%
#120000
b0 "
b0 (
0%
#122000
b1 "
b1 (
1%
#124000
b0 "
b0 (
0%
#126000
b1 "
b1 (
1%
#128000
b0 "
b0 (
0%
#130000
b1 "
b1 (
1%
#132000
b0 "
b0 (
0%
#134000
b1 "
b1 (
1%
#136000
b0 "
b0 (
0%
#138000
b1 "
b1 (
1%
#140000
b0 "
b0 (
0%
#142000
b1 "
b1 (
1%
#144000
b0 "
b0 (
0%
#146000
b1 "
b1 (
1%
#148000
b0 "
b0 (
0%
#150000
b1 "
b1 (
1%
#152000
b0 "
b0 (
0%
#154000
b1 "
b1 (
1%
#156000
b0 "
b0 (
0%
#158000
b1 "
b1 (
1%
#160000
b0 "
b0 (
0%
#162000
b1 "
b1 (
1%
#164000
b0 "
b0 (
0%
#166000
b1 "
b1 (
1%
#168000
b0 "
b0 (
0%
#170000
b1 "
b1 (
1%
#172000
b0 "
b0 (
0%
#174000
b1 "
b1 (
1%
#176000
b0 "
b0 (
0%
#178000
b1 "
b1 (
1%
#180000
b0 "
b0 (
0%
#182000
b1 "
b1 (
1%
#184000
b0 "
b0 (
0%
#186000
b1 "
b1 (
1%
#188000
b0 "
b0 (
0%
#190000
b1 "
b1 (
1%
#192000
b0 "
b0 (
0%
#194000
b1 "
b1 (
1%
#196000
b0 "
b0 (
0%
#198000
b1 "
b1 (
1%
#200000
b0 "
b0 (
0%
#202000
b1 "
b1 (
1%
#204000
b0 "
b0 (
0%
#206000
b1 "
b1 (
1%
#208000
b0 "
b0 (
0%
#210000
b1 "
b1 (
1%
#212000
b0 "
b0 (
0%
#214000
b1 "
b1 (
1%
#216000
b0 "
b0 (
0%
#218000
b1 "
b1 (
1%
#220000
b0 "
b0 (
0%
#222000
b1 "
b1 (
1%
#224000
b0 "
b0 (
0%
#226000
b1 "
b1 (
1%
#228000
b0 "
b0 (
0%
#230000
b1 "
b1 (
1%
#232000
b0 "
b0 (
0%
#234000
b1 "
b1 (
1%
#236000
b0 "
b0 (
0%
#238000
b1 "
b1 (
1%
#240000
b0 "
b0 (
0%
#242000
b1 "
b1 (
1%
#244000
b0 "
b0 (
0%
#246000
b1 "
b1 (
1%
#248000
b0 "
b0 (
0%
#250000
b1 "
b1 (
1%
#252000
b0 "
b0 (
0%
#254000
b1 "
b1 (
1%
#256000
b0 "
b0 (
0%
#258000
b1 "
b1 (
1%
#260000
b0 "
b0 (
0%
#262000
b1 "
b1 (
1%
#264000
b0 "
b0 (
0%
#266000
b1 "
b1 (
1%
#268000
b0 "
b0 (
0%
#270000
b1 "
b1 (
1%
#272000
b0 "
b0 (
0%
#274000
b1 "
b1 (
1%
#276000
b0 "
b0 (
0%
#278000
b1 "
b1 (
1%
#280000
b0 "
b0 (
0%
#282000
b1 "
b1 (
1%
#284000
b0 "
b0 (
0%
#286000
b1 "
b1 (
1%
#288000
b0 "
b0 (
0%
#290000
b1 "
b1 (
1%
#292000
b0 "
b0 (
0%
#294000
b1 "
b1 (
1%
#296000
b0 "
b0 (
0%
#298000
b1 "
b1 (
1%
#300000
b0 "
b0 (
0%
#302000
b1 "
b1 (
1%
#304000
b0 "
b0 (
0%
#306000
b1 "
b1 (
1%
#308000
b0 "
b0 (
0%
#310000
b1 "
b1 (
1%
#312000
b0 "
b0 (
0%
#314000
b1 "
b1 (
1%
#316000
b0 "
b0 (
0%
#318000
b1 "
b1 (
1%
#320000
b0 "
b0 (
0%
#322000
b1 "
b1 (
1%
#324000
b0 "
b0 (
0%
#326000
b1 "
b1 (
1%
#328000
b0 "
b0 (
0%
#330000
b1 "
b1 (
1%
#332000
b0 "
b0 (
0%
#334000
b1 "
b1 (
1%
#336000
b0 "
b0 (
0%
#338000
b1 "
b1 (
1%
#340000
b0 "
b0 (
0%
#342000
b1 "
b1 (
1%
#344000
b0 "
b0 (
0%
#346000
b1 "
b1 (
1%
#348000
b0 "
b0 (
0%
#350000
b1 "
b1 (
1%
#352000
b0 "
b0 (
0%
#354000
b1 "
b1 (
1%
#356000
b0 "
b0 (
0%
#358000
b1 "
b1 (
1%
#360000
b0 "
b0 (
0%
#362000
b1 "
b1 (
1%
#364000
b0 "
b0 (
0%
#366000
b1 "
b1 (
1%
#368000
b0 "
b0 (
0%
#370000
b1 "
b1 (
1%
#372000
b0 "
b0 (
0%
#374000
b1 "
b1 (
1%
#376000
b0 "
b0 (
0%
#378000
b1 "
b1 (
1%
#380000
b0 "
b0 (
0%
#382000
b1 "
b1 (
1%
#384000
b0 "
b0 (
0%
#386000
b1 "
b1 (
1%
#388000
b0 "
b0 (
0%
#390000
b1 "
b1 (
1%
#392000
b0 "
b0 (
0%
#394000
b1 "
b1 (
1%
#396000
b0 "
b0 (
0%
#398000
b1 "
b1 (
1%
#400000
b0 "
b0 (
0%
#402000
b1 "
b1 (
1%
#404000
b0 "
b0 (
0%
#406000
b1 "
b1 (
1%
#408000
b0 "
b0 (
0%
#410000
b1 "
b1 (
1%
#412000
b0 "
b0 (
0%
#414000
b1 "
b1 (
1%
#416000
b0 "
b0 (
0%
#418000
b1 "
b1 (
1%
#420000
b0 "
b0 (
0%
#422000
b1 "
b1 (
1%
#424000
b0 "
b0 (
0%
#426000
b1 "
b1 (
1%
#428000
b0 "
b0 (
0%
#430000
b1 "
b1 (
1%
#432000
b0 "
b0 (
0%
#434000
b1 "
b1 (
1%
#436000
b0 "
b0 (
0%
#438000
b1 "
b1 (
1%
#440000
b0 "
b0 (
0%
#442000
b1 "
b1 (
1%
#444000
b0 "
b0 (
0%
#446000
b1 "
b1 (
1%
#448000
b0 "
b0 (
0%
#450000
b1 "
b1 (
1%
#452000
b0 "
b0 (
0%
#454000
b1 "
b1 (
1%
#456000
b0 "
b0 (
0%
#458000
b1 "
b1 (
1%
#460000
b0 "
b0 (
0%
#462000
b1 "
b1 (
1%
#464000
b0 "
b0 (
0%
#466000
b1 "
b1 (
1%
#468000
b0 "
b0 (
0%
#470000
b1 "
b1 (
1%
#472000
b0 "
b0 (
0%
#474000
b1 "
b1 (
1%
#476000
b0 "
b0 (
0%
#478000
b1 "
b1 (
1%
#480000
b0 "
b0 (
0%
#482000
b1 "
b1 (
1%
#484000
b0 "
b0 (
0%
#486000
b1 "
b1 (
1%
#488000
b0 "
b0 (
0%
#490000
b1 "
b1 (
1%
#492000
b0 "
b0 (
0%
#494000
b1 "
b1 (
1%
#496000
b0 "
b0 (
0%
#498000
b1 "
b1 (
1%
#500000
b0 "
b0 (
0%
#502000
b1 "
b1 (
1%
#504000
b0 "
b0 (
0%
#506000
b1 "
b1 (
1%
#508000
b0 "
b0 (
0%
#510000
b1 "
b1 (
1%
#512000
b0 "
b0 (
0%
#514000
b1 "
b1 (
1%
#516000
b0 "
b0 (
0%
#518000
b1 "
b1 (
1%
#520000
b0 "
b0 (
0%
#522000
b1 "
b1 (
1%
#524000
b0 "
b0 (
0%
#526000
b1 "
b1 (
1%
#528000
b0 "
b0 (
0%
#530000
b1 "
b1 (
1%
#532000
b0 "
b0 (
0%
#534000
b1 "
b1 (
1%
#536000
b0 "
b0 (
0%
#538000
b1 "
b1 (
1%
#540000
b0 "
b0 (
0%
#542000
b1 "
b1 (
1%
#544000
b0 "
b0 (
0%
#546000
b1 "
b1 (
1%
#548000
b0 "
b0 (
0%
#550000
b1 "
b1 (
1%
#552000
b0 "
b0 (
0%
#554000
b1 "
b1 (
1%
#556000
b0 "
b0 (
0%
#558000
b1 "
b1 (
1%
#560000
b0 "
b0 (
0%
#562000
b1 "
b1 (
1%
#564000
b0 "
b0 (
0%
#566000
b1 "
b1 (
1%
#568000
b0 "
b0 (
0%
#570000
b1 "
b1 (
1%
#572000
b0 "
b0 (
0%
#574000
b1 "
b1 (
1%
#576000
b0 "
b0 (
0%
#578000
b1 "
b1 (
1%
#580000
b0 "
b0 (
0%
#582000
b1 "
b1 (
1%
#584000
b0 "
b0 (
0%
#586000
b1 "
b1 (
1%
#588000
b0 "
b0 (
0%
#590000
b1 "
b1 (
1%
#592000
b0 "
b0 (
0%
#594000
b1 "
b1 (
1%
#596000
b0 "
b0 (
0%
#598000
b1 "
b1 (
1%
#600000
b0 "
b0 (
0%
#602000
b1 "
b1 (
1%
#604000
b0 "
b0 (
0%
#606000
b1 "
b1 (
1%
#608000
b0 "
b0 (
0%
#610000
b1 "
b1 (
1%
#612000
b0 "
b0 (
0%
#614000
b1 "
b1 (
1%
#616000
b0 "
b0 (
0%
#618000
b1 "
b1 (
1%
#620000
b0 "
b0 (
0%
#622000
b1 "
b1 (
1%
#624000
b0 "
b0 (
0%
#626000
b1 "
b1 (
1%
#628000
b0 "
b0 (
0%
#630000
b1 "
b1 (
1%
#632000
b0 "
b0 (
0%
#634000
b1 "
b1 (
1%
#636000
b0 "
b0 (
0%
#638000
b1 "
b1 (
1%
#640000
b0 "
b0 (
0%
#642000
b1 "
b1 (
1%
#644000
b0 "
b0 (
0%
#646000
b1 "
b1 (
1%
#648000
b0 "
b0 (
0%
#650000
b1 "
b1 (
1%
#652000
b0 "
b0 (
0%
#654000
b1 "
b1 (
1%
#656000
b0 "
b0 (
0%
#658000
b1 "
b1 (
1%
#660000
b0 "
b0 (
0%
#662000
b1 "
b1 (
1%
#664000
b0 "
b0 (
0%
#666000
b1 "
b1 (
1%
#668000
b0 "
b0 (
0%
#670000
b1 "
b1 (
1%
#672000
b0 "
b0 (
0%
#674000
b1 "
b1 (
1%
#676000
b0 "
b0 (
0%
#678000
b1 "
b1 (
1%
#680000
b0 "
b0 (
0%
#682000
b1 "
b1 (
1%
#684000
b0 "
b0 (
0%
#686000
b1 "
b1 (
1%
#688000
b0 "
b0 (
0%
#690000
b1 "
b1 (
1%
#692000
b0 "
b0 (
0%
#694000
b1 "
b1 (
1%
#696000
b0 "
b0 (
0%
#698000
b1 "
b1 (
1%
#700000
b0 "
b0 (
0%
#702000
b1 "
b1 (
1%
#704000
b0 "
b0 (
0%
#706000
b1 "
b1 (
1%
#708000
b0 "
b0 (
0%
#710000
b1 "
b1 (
1%
#712000
b0 "
b0 (
0%
#714000
b1 "
b1 (
1%
#716000
b0 "
b0 (
0%
#718000
b1 "
b1 (
1%
#720000
b0 "
b0 (
0%
#722000
b1 "
b1 (
1%
#724000
b0 "
b0 (
0%
#726000
b1 "
b1 (
1%
#728000
b0 "
b0 (
0%
#730000
b1 "
b1 (
1%
#732000
b0 "
b0 (
0%
#734000
b1 "
b1 (
1%
#736000
b0 "
b0 (
0%
#738000
b1 "
b1 (
1%
#740000
b0 "
b0 (
0%
#742000
b1 "
b1 (
1%
#744000
b0 "
b0 (
0%
#746000
b1 "
b1 (
1%
#748000
b0 "
b0 (
0%
#750000
b1 "
b1 (
1%
#752000
b0 "
b0 (
0%
#754000
b1 "
b1 (
1%
#756000
b0 "
b0 (
0%
#758000
b1 "
b1 (
1%
#760000
b0 "
b0 (
0%
#762000
b1 "
b1 (
1%
#764000
b0 "
b0 (
0%
#766000
b1 "
b1 (
1%
#768000
b0 "
b0 (
0%
#770000
b1 "
b1 (
1%
#772000
b0 "
b0 (
0%
#774000
b1 "
b1 (
1%
#776000
b0 "
b0 (
0%
#778000
b1 "
b1 (
1%
#780000
b0 "
b0 (
0%
#782000
b1 "
b1 (
1%
#784000
b0 "
b0 (
0%
#786000
b1 "
b1 (
1%
#788000
b0 "
b0 (
0%
#790000
b1 "
b1 (
1%
#792000
b0 "
b0 (
0%
#794000
b1 "
b1 (
1%
#796000
b0 "
b0 (
0%
#798000
b1 "
b1 (
1%
#800000
b0 "
b0 (
0%
#802000
b1 "
b1 (
1%
#804000
b0 "
b0 (
0%
#806000
b1 "
b1 (
1%
#808000
b0 "
b0 (
0%
#810000
b1 "
b1 (
1%
#812000
b0 "
b0 (
0%
#814000
b1 "
b1 (
1%
#816000
b0 "
b0 (
0%
#818000
b1 "
b1 (
1%
#820000
b0 "
b0 (
0%
#822000
b1 "
b1 (
1%
#824000
b0 "
b0 (
0%
#826000
b1 "
b1 (
1%
#828000
b0 "
b0 (
0%
#830000
b1 "
b1 (
1%
#832000
b0 "
b0 (
0%
#834000
b1 "
b1 (
1%
#836000
b0 "
b0 (
0%
#838000
b1 "
b1 (
1%
#840000
b0 "
b0 (
0%
#842000
b1 "
b1 (
1%
#844000
b0 "
b0 (
0%
#846000
b1 "
b1 (
1%
#848000
b0 "
b0 (
0%
#850000
b1 "
b1 (
1%
#852000
b0 "
b0 (
0%
#854000
b1 "
b1 (
1%
#856000
b0 "
b0 (
0%
#858000
b1 "
b1 (
1%
#860000
b0 "
b0 (
0%
#862000
b1 "
b1 (
1%
#864000
b0 "
b0 (
0%
#866000
b1 "
b1 (
1%
#868000
b0 "
b0 (
0%
#870000
b1 "
b1 (
1%
#872000
b0 "
b0 (
0%
#874000
b1 "
b1 (
1%
#876000
b0 "
b0 (
0%
#878000
b1 "
b1 (
1%
#880000
b0 "
b0 (
0%
#882000
b1 "
b1 (
1%
#884000
b0 "
b0 (
0%
#886000
b1 "
b1 (
1%
#888000
b0 "
b0 (
0%
#890000
b1 "
b1 (
1%
#892000
b0 "
b0 (
0%
#894000
b1 "
b1 (
1%
#896000
b0 "
b0 (
0%
#898000
b1 "
b1 (
1%
#900000
b0 "
b0 (
0%
#902000
b1 "
b1 (
1%
#904000
b0 "
b0 (
0%
#906000
b1 "
b1 (
1%
#908000
b0 "
b0 (
0%
#910000
b1 "
b1 (
1%
#912000
b0 "
b0 (
0%
#914000
b1 "
b1 (
1%
#916000
b0 "
b0 (
0%
#918000
b1 "
b1 (
1%
#920000
b0 "
b0 (
0%
#922000
b1 "
b1 (
1%
#924000
b0 "
b0 (
0%
#926000
b1 "
b1 (
1%
#928000
b0 "
b0 (
0%
#930000
b1 "
b1 (
1%
#932000
b0 "
b0 (
0%
#934000
b1 "
b1 (
1%
#936000
b0 "
b0 (
0%
#938000
b1 "
b1 (
1%
#940000
b0 "
b0 (
0%
#942000
b1 "
b1 (
1%
#944000
b0 "
b0 (
0%
#946000
b1 "
b1 (
1%
#948000
b0 "
b0 (
0%
#950000
b1 "
b1 (
1%
#952000
b0 "
b0 (
0%
#954000
b1 "
b1 (
1%
#956000
b0 "
b0 (
0%
#958000
b1 "
b1 (
1%
#960000
b0 "
b0 (
0%
#962000
b1 "
b1 (
1%
#964000
b0 "
b0 (
0%
#966000
b1 "
b1 (
1%
#968000
b0 "
b0 (
0%
#970000
b1 "
b1 (
1%
#972000
b0 "
b0 (
0%
#974000
b1 "
b1 (
1%
#976000
b0 "
b0 (
0%
#978000
b1 "
b1 (
1%
#980000
b0 "
b0 (
0%
#982000
b1 "
b1 (
1%
#984000
b0 "
b0 (
0%
#986000
b1 "
b1 (
1%
#988000
b0 "
b0 (
0%
#990000
b1 "
b1 (
1%
#992000
b0 "
b0 (
0%
#994000
b1 "
b1 (
1%
#996000
b0 "
b0 (
0%
#998000
b1 "
b1 (
1%
#1000000
b0 "
b0 (
0%
#1002000
b1 "
b1 (
1%
#1004000
b0 "
b0 (
0%
#1006000
b1 "
b1 (
1%
#1008000
b0 "
b0 (
0%
#1010000
b1 "
b1 (
1%
#1012000
b0 "
b0 (
0%
#1014000
b1 "
b1 (
1%
#1016000
b0 "
b0 (
0%
#1018000
b1 "
b1 (
1%
#1020000
b0 "
b0 (
0%
#1022000
b1 "
b1 (
1%
#1024000
b0 "
b0 (
0%
#1026000
b1 "
b1 (
1%
#1028000
b0 "
b0 (
0%
#1030000
b1 "
b1 (
1%
#1032000
b0 "
b0 (
0%
#1034000
b1 "
b1 (
1%
#1036000
b0 "
b0 (
0%
#1038000
b1 "
b1 (
1%
#1040000
b0 "
b0 (
0%
#1042000
b1 "
b1 (
1%
#1044000
b0 "
b0 (
0%
#1046000
b1 "
b1 (
1%
#1048000
b0 "
b0 (
0%
#1050000
b1 "
b1 (
1%
#1052000
b0 "
b0 (
0%
#1054000
b1 "
b1 (
1%
#1056000
b0 "
b0 (
0%
#1058000
b1 "
b1 (
1%
#1060000
b0 "
b0 (
0%
#1062000
b1 "
b1 (
1%
#1064000
b0 "
b0 (
0%
#1066000
b1 "
b1 (
1%
#1068000
b0 "
b0 (
0%
#1070000
b1 "
b1 (
1%
#1072000
b0 "
b0 (
0%
#1074000
b1 "
b1 (
1%
#1076000
b0 "
b0 (
0%
#1078000
b1 "
b1 (
1%
#1080000
b0 "
b0 (
0%
#1082000
b1 "
b1 (
1%
#1084000
b0 "
b0 (
0%
#1086000
b1 "
b1 (
1%
#1088000
b0 "
b0 (
0%
#1090000
b1 "
b1 (
1%
#1092000
b0 "
b0 (
0%
#1094000
b1 "
b1 (
1%
#1096000
b0 "
b0 (
0%
#1098000
b1 "
b1 (
1%
#1100000
b0 "
b0 (
0%
#1102000
b1 "
b1 (
1%
#1104000
b0 "
b0 (
0%
#1106000
b1 "
b1 (
1%
#1108000
b0 "
b0 (
0%
#1110000
b1 "
b1 (
1%
#1112000
b0 "
b0 (
0%
#1114000
b1 "
b1 (
1%
#1116000
b0 "
b0 (
0%
#1118000
b1 "
b1 (
1%
#1120000
b0 "
b0 (
0%
#1122000
b1 "
b1 (
1%
#1124000
b0 "
b0 (
0%
#1126000
b1 "
b1 (
1%
#1128000
b0 "
b0 (
0%
#1130000
b1 "
b1 (
1%
#1132000
b0 "
b0 (
0%
#1134000
b1 "
b1 (
1%
#1136000
b0 "
b0 (
0%
#1138000
b1 "
b1 (
1%
#1140000
b0 "
b0 (
0%
#1142000
b1 "
b1 (
1%
#1144000
b0 "
b0 (
0%
#1146000
b1 "
b1 (
1%
#1148000
b0 "
b0 (
0%
#1150000
b1 "
b1 (
1%
#1152000
b0 "
b0 (
0%
#1154000
b1 "
b1 (
1%
#1156000
b0 "
b0 (
0%
#1158000
b1 "
b1 (
1%
#1160000
b0 "
b0 (
0%
#1162000
b1 "
b1 (
1%
#1164000
b0 "
b0 (
0%
#1166000
b1 "
b1 (
1%
#1168000
b0 "
b0 (
0%
#1170000
b1 "
b1 (
1%
#1172000
b0 "
b0 (
0%
#1174000
b1 "
b1 (
1%
#1176000
b0 "
b0 (
0%
#1178000
b1 "
b1 (
1%
#1180000
b0 "
b0 (
0%
#1182000
b1 "
b1 (
1%
#1184000
b0 "
b0 (
0%
#1186000
b1 "
b1 (
1%
#1188000
b0 "
b0 (
0%
#1190000
b1 "
b1 (
1%
#1192000
b0 "
b0 (
0%
#1194000
b1 "
b1 (
1%
#1196000
b0 "
b0 (
0%
#1198000
b1 "
b1 (
1%
#1200000
b0 "
b0 (
0%
#1202000
b1 "
b1 (
1%
#1204000
b0 "
b0 (
0%
#1206000
b1 "
b1 (
1%
#1208000
b0 "
b0 (
0%
#1210000
b1 "
b1 (
1%
#1212000
b0 "
b0 (
0%
#1214000
b1 "
b1 (
1%
#1216000
b0 "
b0 (
0%
#1218000
b1 "
b1 (
1%
#1220000
b0 "
b0 (
0%
#1222000
b1 "
b1 (
1%
#1224000
b0 "
b0 (
0%
#1226000
b1 "
b1 (
1%
#1228000
b0 "
b0 (
0%
#1230000
b1 "
b1 (
1%
#1232000
b0 "
b0 (
0%
#1234000
b1 "
b1 (
1%
#1236000
b0 "
b0 (
0%
#1238000
b1 "
b1 (
1%
#1240000
b0 "
b0 (
0%
#1242000
b1 "
b1 (
1%
#1244000
b0 "
b0 (
0%
#1246000
b1 "
b1 (
1%
#1248000
b0 "
b0 (
0%
#1250000
b1 "
b1 (
1%
#1252000
b0 "
b0 (
0%
#1254000
b1 "
b1 (
1%
#1256000
b0 "
b0 (
0%
#1258000
b1 "
b1 (
1%
#1260000
b0 "
b0 (
0%
#1262000
b1 "
b1 (
1%
#1264000
b0 "
b0 (
0%
#1266000
b1 "
b1 (
1%
#1268000
b0 "
b0 (
0%
#1270000
b1 "
b1 (
1%
#1272000
b0 "
b0 (
0%
#1274000
b1 "
b1 (
1%
#1276000
b0 "
b0 (
0%
#1278000
b1 "
b1 (
1%
#1280000
b0 "
b0 (
0%
#1282000
b1 "
b1 (
1%
#1284000
b0 "
b0 (
0%
#1286000
b1 "
b1 (
1%
#1288000
b0 "
b0 (
0%
#1290000
b1 "
b1 (
1%
#1292000
b0 "
b0 (
0%
#1294000
b1 "
b1 (
1%
#1296000
b0 "
b0 (
0%
#1298000
b1 "
b1 (
1%
#1300000
b0 "
b0 (
0%
#1302000
b1 "
b1 (
1%
#1304000
b0 "
b0 (
0%
#1306000
b1 "
b1 (
1%
#1308000
b0 "
b0 (
0%
#1310000
b1 "
b1 (
1%
#1312000
b0 "
b0 (
0%
#1314000
b1 "
b1 (
1%
#1316000
b0 "
b0 (
0%
#1318000
b1 "
b1 (
1%
#1320000
b0 "
b0 (
0%
#1322000
b1 "
b1 (
1%
#1324000
b0 "
b0 (
0%
#1326000
b1 "
b1 (
1%
#1328000
b0 "
b0 (
0%
#1330000
b1 "
b1 (
1%
#1332000
b0 "
b0 (
0%
#1334000
b1 "
b1 (
1%
#1336000
b0 "
b0 (
0%
#1338000
b1 "
b1 (
1%
#1340000
b0 "
b0 (
0%
#1342000
b1 "
b1 (
1%
#1344000
b0 "
b0 (
0%
#1346000
b1 "
b1 (
1%
#1348000
b0 "
b0 (
0%
#1350000
b1 "
b1 (
1%
#1352000
b0 "
b0 (
0%
#1354000
b1 "
b1 (
1%
#1356000
b0 "
b0 (
0%
#1358000
b1 "
b1 (
1%
#1360000
b0 "
b0 (
0%
#1362000
b1 "
b1 (
1%
#1364000
b0 "
b0 (
0%
#1366000
b1 "
b1 (
1%
#1368000
b0 "
b0 (
0%
#1370000
b1 "
b1 (
1%
#1372000
b0 "
b0 (
0%
#1374000
b1 "
b1 (
1%
#1376000
b0 "
b0 (
0%
#1378000
b1 "
b1 (
1%
#1380000
b0 "
b0 (
0%
#1382000
b1 "
b1 (
1%
#1384000
b0 "
b0 (
0%
#1386000
b1 "
b1 (
1%
#1388000
b0 "
b0 (
0%
#1390000
b1 "
b1 (
1%
#1392000
b0 "
b0 (
0%
#1394000
b1 "
b1 (
1%
#1396000
b0 "
b0 (
0%
#1398000
b1 "
b1 (
1%
#1400000
b0 "
b0 (
0%
#1402000
b1 "
b1 (
1%
#1404000
b0 "
b0 (
0%
#1406000
b1 "
b1 (
1%
#1408000
b0 "
b0 (
0%
#1410000
b1 "
b1 (
1%
#1412000
b0 "
b0 (
0%
#1414000
b1 "
b1 (
1%
#1416000
b0 "
b0 (
0%
#1418000
b1 "
b1 (
1%
#1420000
b0 "
b0 (
0%
#1422000
b1 "
b1 (
1%
#1424000
b0 "
b0 (
0%
#1426000
b1 "
b1 (
1%
#1428000
b0 "
b0 (
0%
#1430000
b1 "
b1 (
1%
#1432000
b0 "
b0 (
0%
#1434000
b1 "
b1 (
1%
#1436000
b0 "
b0 (
0%
#1438000
b1 "
b1 (
1%
#1440000
b0 "
b0 (
0%
#1442000
b1 "
b1 (
1%
#1444000
b0 "
b0 (
0%
#1446000
b1 "
b1 (
1%
#1448000
b0 "
b0 (
0%
#1450000
b1 "
b1 (
1%
#1452000
b0 "
b0 (
0%
#1454000
b1 "
b1 (
1%
#1456000
b0 "
b0 (
0%
#1458000
b1 "
b1 (
1%
#1460000
b0 "
b0 (
0%
#1462000
b1 "
b1 (
1%
#1464000
b0 "
b0 (
0%
#1466000
b1 "
b1 (
1%
#1468000
b0 "
b0 (
0%
#1470000
b1 "
b1 (
1%
#1472000
b0 "
b0 (
0%
#1474000
b1 "
b1 (
1%
#1476000
b0 "
b0 (
0%
#1478000
b1 "
b1 (
1%
#1480000
b0 "
b0 (
0%
#1482000
b1 "
b1 (
1%
#1484000
b0 "
b0 (
0%
#1486000
b1 "
b1 (
1%
#1488000
b0 "
b0 (
0%
#1490000
b1 "
b1 (
1%
#1492000
b0 "
b0 (
0%
#1494000
b1 "
b1 (
1%
#1496000
b0 "
b0 (
0%
#1498000
b1 "
b1 (
1%
#1500000
b0 "
b0 (
0%
#1502000
b1 "
b1 (
1%
#1504000
b0 "
b0 (
0%
#1506000
b1 "
b1 (
1%
#1508000
b0 "
b0 (
0%
#1510000
b1 "
b1 (
1%
#1512000
b0 "
b0 (
0%
#1514000
b1 "
b1 (
1%
#1516000
b0 "
b0 (
0%
#1518000
b1 "
b1 (
1%
#1520000
b0 "
b0 (
0%
#1522000
b1 "
b1 (
1%
#1524000
b0 "
b0 (
0%
#1526000
b1 "
b1 (
1%
#1528000
b0 "
b0 (
0%
#1530000
b1 "
b1 (
1%
#1532000
b0 "
b0 (
0%
#1534000
b1 "
b1 (
1%
#1536000
b0 "
b0 (
0%
#1538000
b1 "
b1 (
1%
#1540000
b0 "
b0 (
0%
#1542000
b1 "
b1 (
1%
#1544000
b0 "
b0 (
0%
#1546000
b1 "
b1 (
1%
#1548000
b0 "
b0 (
0%
#1550000
b1 "
b1 (
1%
#1552000
b0 "
b0 (
0%
#1554000
b1 "
b1 (
1%
#1556000
b0 "
b0 (
0%
#1558000
b1 "
b1 (
1%
#1560000
b0 "
b0 (
0%
#1562000
b1 "
b1 (
1%
#1564000
b0 "
b0 (
0%
#1566000
b1 "
b1 (
1%
#1568000
b0 "
b0 (
0%
#1570000
b1 "
b1 (
1%
#1572000
b0 "
b0 (
0%
#1574000
b1 "
b1 (
1%
#1576000
b0 "
b0 (
0%
#1578000
b1 "
b1 (
1%
#1580000
b0 "
b0 (
0%
#1582000
b1 "
b1 (
1%
#1584000
b0 "
b0 (
0%
#1586000
b1 "
b1 (
1%
#1588000
b0 "
b0 (
0%
#1590000
b1 "
b1 (
1%
#1592000
b0 "
b0 (
0%
#1594000
b1 "
b1 (
1%
#1596000
b0 "
b0 (
0%
#1598000
b1 "
b1 (
1%
#1600000
b0 "
b0 (
0%
#1602000
b1 "
b1 (
1%
#1604000
b0 "
b0 (
0%
#1606000
b1 "
b1 (
1%
#1608000
b0 "
b0 (
0%
#1610000
b1 "
b1 (
1%
#1612000
b0 "
b0 (
0%
#1614000
b1 "
b1 (
1%
#1616000
b0 "
b0 (
0%
#1618000
b1 "
b1 (
1%
#1620000
b0 "
b0 (
0%
#1622000
b1 "
b1 (
1%
#1624000
b0 "
b0 (
0%
#1626000
b1 "
b1 (
1%
#1628000
b0 "
b0 (
0%
#1630000
b1 "
b1 (
1%
#1632000
b0 "
b0 (
0%
#1634000
b1 "
b1 (
1%
#1636000
b0 "
b0 (
0%
#1638000
b1 "
b1 (
1%
#1640000
b0 "
b0 (
0%
#1642000
b1 "
b1 (
1%
#1644000
b0 "
b0 (
0%
#1646000
b1 "
b1 (
1%
#1648000
b0 "
b0 (
0%
#1650000
b1 "
b1 (
1%
#1652000
b0 "
b0 (
0%
#1654000
b1 "
b1 (
1%
#1656000
b0 "
b0 (
0%
#1658000
b1 "
b1 (
1%
#1660000
b0 "
b0 (
0%
#1662000
b1 "
b1 (
1%
#1664000
b0 "
b0 (
0%
#1666000
b1 "
b1 (
1%
#1668000
b0 "
b0 (
0%
#1670000
b1 "
b1 (
1%
#1672000
b0 "
b0 (
0%
#1674000
b1 "
b1 (
1%
#1676000
b0 "
b0 (
0%
#1678000
b1 "
b1 (
1%
